%module pymmm

%{
	#include "MMM/Model/Model.h"
	#include "MMM/Model/ModelProcessor.h"
	#include "MMM/Model/ModelProcessorWinter.h"
	#include "MMM/Model/ModelReaderXML.h"
	#include "MMM/Motion/MotionReaderXML.h"
	#include "MMM/Motion/Motion.h"
	#include "MMM/Motion/MotionFrame.h"
	#include "MMM/Motion/MotionFrameZmpNecessities.h"
	#include "alglib/src/interpolation.h"
	#include "alglib/src/alglibinternal.h"
	#include "alglib/src/alglibmisc.h"
        #include "alglib/src/linalg.h"
        #include "alglib/src/solvers.h"
        #include "alglib/src/optimization.h"
        #include "alglib/src/specialfunctions.h"
        #include "alglib/src/integration.h"
        #include "alglib/src/ap.h"
	#include "MMMSimoxTools/MMMSimoxTools.h"
	#include "MMM/MathTools.h"
%}

%include "std_string.i"
%include "std_vector.i"

namespace std {
    %template(StdVectorFloat) vector<float>;
    %template(StdVectorString) vector<std::string>;
}

%include "boost_shared_ptr.i"
%shared_ptr(MMM::Motion)
%shared_ptr(MMM::MotionFrame)
%shared_ptr(MMM::MotionFrameEntry)
%shared_ptr(MMM::Model)
%shared_ptr(MMM::ModelProcessor)
%shared_ptr(MMM::MotionFrameZmpNecessities)

%template(MotionPtr) boost::shared_ptr<MMM::Motion>;
%template(MotionFramePtr) boost::shared_ptr<MMM::MotionFrame>;
%template(MotionFrameEntryPtr) boost::shared_ptr<MMM::MotionFrameEntry>;
%template(ModelPtr) boost::shared_ptr<MMM::Model>;
%template(ModelProcessorPtr) boost::shared_ptr<MMM::ModelProcessor>;
%template(MotionFrameZmpNecessitiesPtr) boost::shared_ptr<MMM::MotionFrameZmpNecessities>;

%include <eigen.i>

%eigen_typemaps(Eigen::Vector3f)
%eigen_typemaps(Eigen::Matrix4f)

// Rename all methods called "print" to "print_instance" because print is a reserved keyword in Python
%rename(print_instance) print;

namespace VirtualRobot {
	class Robot;	
	typedef boost::shared_ptr<Robot> RobotPtr;
}

namespace MMM {
	class Motion;
	typedef boost::shared_ptr<Motion> MotionPtr;

	class MotionFrame;
	typedef boost::shared_ptr<MotionFrame> MotionFramePtr;

	class MotionFrameEntry;
	typedef boost::shared_ptr<MotionFrameEntry> MotionFrameEntryPtr;

	class MotionFrameZmpNecessities;
	typedef boost::shared_ptr<MotionFrameZmpNecessities> MotionFrameZmpNecessitiesPtr;

	class Model;
	typedef boost::shared_ptr<Model> ModelPtr;

	class ModelProcessor;
	typedef boost::shared_ptr<ModelProcessor> ModelProcessorPtr;

	typedef std::vector<MotionPtr> MotionList;

	class MotionReaderXML {
	public:
		MotionReaderXML();
		MotionPtr loadMotion(const std::string &xmlFile, const std::string &motionName = std::string());
		MotionList loadAllMotions(const std::string &xmlFile);
		MotionList loadAllMotionsFromString(const std::string &xmlDataString);
		std::vector<std::string> getMotionNames(const std::string &xmlFile) const;
	};

	typedef boost::shared_ptr<MotionReaderXML> MotionReaderXMLPtr;

	class Motion {
	public:
		std::vector<Eigen::Matrix3f> inertia_tensor;
        	void appendToInertiaTensor(float inertiaTensor1, float inertiaTensor2, float inertiaTensor3);
		Motion(const std::string& name);
		Motion(const Motion& m);
		bool addMotionFrame(MotionFramePtr md);
		bool removeMotionFrame(size_t frame);
		bool setJointOrder(const std::vector<std::string> &jointNames);
		bool setSensorOrder(const std::vector<std::string> sensorNames);
		void setName(const std::string& name);
		std::string getName();
		void setComment(const std::string &comment);
		void addComment(const std::string &comment);
		std::string getComment();
		std::vector<std::string> getJointNames();
		MotionFramePtr getMotionFrame(size_t frame);
		std::vector<MotionFramePtr> getMotionFrames();
		void setMotionFrames(std::vector<MotionFramePtr> &mfs){motionFrames = mfs;}
		virtual unsigned int getNumFrames();
		void setModel(ModelPtr model);
		void setModel(ModelPtr processedModel, ModelPtr originalModel);
		ModelPtr getModel(bool processedModel = true);
		const std::string& getMotionFilePath();
		void setMotionFilePath(const std::string&filepath);
		const std::string& getMotionFileName();
		void setMotionFileName(const std::string&filename);
		void setModelProcessor(ModelProcessorPtr mp);
		ModelProcessorPtr getModelProcessor();
		virtual std::string toXML();
		void print();
		void print(const std::string &filename);
		bool hasJoint( const std::string &name );
		void calculateAcc(std::string name);
		void calculateDerivative(std::string name, bool smooth = false,int windowSize = 20);
		enum jointEnum{eValues, eVelocities, eAccelerations};
		void smoothJointValues(jointEnum type, int windowSize);
		MotionPtr getSegmentMotion(size_t frame1, size_t frame2);
		MotionPtr copy();
		MotionList getSegmentMotions(std::vector<int> segmentPoints);
		void calculateZMP();
		void calculateFRI();
		float getValue(Eigen::VectorXf &vector, int pos);
		void smoothSensorAllValues(int windowSize);
		void smoothZmpValues(int windowSize);
		void smoothMomentiZMP(int windowSize);
		void smoothAngularSegPos(int windowSize);
     		bool resetJointsToGlobalValues();
		void caclulateRatioZMPtoConvexHull();
		void smoothCOMValues(int windowSize);
		void smoothZMP(int windowSize);
	
	};

	class MotionFrame {
	public:
		MotionFrame(unsigned int ndof);
		MotionFrame(const MotionFrame &inpSrc);
		Eigen::Matrix4f getRootPose();
		Eigen::Vector3f getRootPos();
		Eigen::Vector3f getRootPosVel();
		Eigen::Vector3f getRootPosAcc();
		Eigen::Vector3f getRootRot();
		Eigen::Vector3f getRootRotVel();
		Eigen::Vector3f getRootRotAcc();
		boost::shared_ptr<Eigen::Matrix4f> rootPosePointer();
		bool setRootPose(const Eigen::Matrix4f &pose);
		bool setRootPos(const Eigen::Vector3f &pos);
		bool setRootPosVel(const Eigen::Vector3f &posVel);
		bool setRootPosAcc(const Eigen::Vector3f &posAcc);
		bool setRootRot(const Eigen::Vector3f &rot);
		bool setRootRotVel(const Eigen::Vector3f &rotVel);
		bool setRootRotAcc(const Eigen::Vector3f &rotAcc);
		bool setSensorPositionAndEularian(Eigen::Matrix4f sensorValues, int pos,int global);
		float timestep;
		Eigen::VectorXf joint;
		Eigen::VectorXf joint_vel;
		Eigen::VectorXf joint_acc;
		bool addEntry(const std::string &name, MotionFrameEntryPtr entry );
		bool removeEntry(const std::string &name);
		bool hasEntry(const std::string &name) const;
		MotionFrameEntryPtr getEntry(const std::string &name);
		std::string toXML();
		unsigned int getndof();
		MotionFrameZmpNecessitiesPtr getZmpEntry();
		bool addSupportPolygon(std::vector<Eigen::Vector2f> points);
		void setStanceFoot(std::string stance);

	protected:
		MotionFrameZmpNecessities zmpNecessitiesEntry;
	};

	class MotionFrameZmpNecessities {
	public:
		MotionFrameZmpNecessities();
		int number_of_relevant_segments;
		Eigen::Vector3f com;
		Eigen::VectorXf angular_momentum;
		Eigen::VectorXf angular_momentum_derivative;
		Eigen::VectorXf segment_COM;
		Eigen::VectorXf segment_COM_derivative;
		Eigen::VectorXf angular_velocity_segments;

		std::vector<Eigen::Matrix3f> rotation_matrix_segments;
		bool setRotationMatrix(Eigen::Matrix4f rootPose, Eigen::Matrix4f rotations, int i);
		bool calculateAngularVel(Eigen::Matrix4f poseToRoot, int pos);
		bool setCOM(Eigen::Vector3f com, Eigen::Matrix4f rootPose);
		bool setNumberOfRelevantSegments(int seg_number);
		bool setSegmentsCOM(Eigen::Matrix4f rootPose, Eigen::Vector3f com, int segment);
		Eigen::Matrix4f rescaleToRootPose(Eigen::Matrix4f rootPose);
		void setSegmentMasses(std::vector<float> segment_masses);
		void setAngularMomentum(std::vector<Eigen::Matrix3f> inertia_tensors);
		void setAngularPos(Eigen::Matrix4f pose, int segment);

	};
	class Model{
	public:
		Model();
		float getMass();
	};

	class ModelReaderXML {
	public:
		ModelReaderXML();
		ModelPtr loadModel(const std::string &xmlFile, const std::string& name = std::string());
	};
	

	class ModelProcessorWinter {
	public:
		ModelProcessorWinter();
		virtual ModelPtr convertModel(ModelPtr input);
		virtual bool setup(float height, float mass, float handLength = -1., float handWidth = -1.);
	};
	namespace Math{
		Eigen::Matrix4f rpy2eigen4f (float r, float p, float y);
		Eigen::Matrix4f quat2eigen4f( float x, float y, float z, float w );
		Eigen::Vector3f matrix3fToEulerXZY( const Eigen::Matrix3f &m);
		Eigen::Vector3f matrix4fToEulerXZY( const Eigen::Matrix4f &m);
		Eigen::VectorXf matrix4fToPoseEulerXZY(const Eigen::Matrix4f &m);
		Eigen::VectorXf matrix4fToPoseRPY(const Eigen::Matrix4f &m);
		Eigen::Matrix3f eulerXZYToMatrix3f( const Eigen::Vector3f &eulerXZY );
		Eigen::Matrix4f poseEulerXZYToMatrix4f( const Eigen::Vector3f &pos, const Eigen::Vector3f &eulerXZY );
		Eigen::Matrix4f poseRPYToMatrix4f( const Eigen::Vector3f &pos, const Eigen::Vector3f &rpy );

		

	};
	namespace SimoxTools {
		VirtualRobot::RobotPtr buildModel(MMM::ModelPtr model, bool loadVisualizations = true);
	}
}
